[
    {
        "id": 0,
        "name":"pillow",
        "price": "$150",
        "url":"./product1.jpg",
        "article":"e0193972",
        "color":"blue",
        "inFavorite": false,
        "inBasket": false
    },
    {
        "id": 1,
        "name":"vase",
        "price": "$120",
        "url":"./product2.jpg",
        "article":"a0453972",
        "color":"blue",
        "inFavorite": false,
        "inBasket": false
    },
    {
        "id": 2,
        "name":"table",
        "price": "$250",
        "url":"./product3.jpg",
        "article":"b0454962",
        "color":"wood",
        "inFavorite": false,
        "inBasket": false
    },
    {
        "id": 3,
        "name":"picture",
        "price": "$50",
        "url":"./product4.jpg",
        "article":"c1463972",
        "color":"grey",
        "inFavorite": false,
        "inBasket": false
    },
    {
        "id": 4,
        "name":"basket",
        "price": "$30",
        "url":"./product5.jpg",
        "article":"g0459152",
        "color":"wood",
        "inFavorite": false,
        "inBasket": false
    },
    {
        "id": 5,
        "name":"mat",
        "price": "$400",
        "url":"./product6.jpg",
        "article":"a04534452",
        "color":"yellow",
        "inFavorite": false,
        "inBasket": false
    },
    {
        "id": 6,
        "name":"flowers",
        "price": "$100",
        "url":"./product7.jpg",
        "article":"z04533452",
        "color":"green",
        "inFavorite": false,
        "inBasket": false
    },
    {
        "id": 7,
        "name":"shelf",
        "price": "$80",
        "url":"./product8.jpg",
        "article":"k0486572",
        "color":"white",
        "inFavorite": false,
        "inBasket": false
    },
    {
        "id": 8,
        "name":"bath",
        "price": "$150",
        "url":"./product9.jpg",
        "article":"m0016972",
        "color":"white",
        "inFavorite": false,
        "inBasket": false
    },
    {
        "id": 9,
        "name":"lighter",
        "price": "$150",
        "url":"./product10.jpg",
        "article":"lelf53972",
        "color":"white",
        "inFavorite": false,
        "inBasket": false
    }
    ]